<define-tag pagetitle>DLA-2400-1 activemq</define-tag>
<define-tag report_date>2020-10-8</define-tag>
<define-tag secrefs>CVE-2020-13920</define-tag>
<define-tag packages>activemq</define-tag>
<define-tag isvulnerable>yes</define-tag>
<define-tag fixed>yes</define-tag>
<define-tag fixed-section>no</define-tag>

#use wml::debian::security

