<define-tag pagetitle>DLA-1484-1 squirrelmail</define-tag>
<define-tag report_date>2018-8-30</define-tag>
<define-tag secrefs>CVE-2018-14950 CVE-2018-14951 CVE-2018-14952 CVE-2018-14953 CVE-2018-14954 CVE-2018-14955 Bug##905023</define-tag>
<define-tag packages>squirrelmail</define-tag>
<define-tag isvulnerable>yes</define-tag>
<define-tag fixed>yes</define-tag>
<define-tag fixed-section>no</define-tag>

#use wml::debian::security

