<define-tag pagetitle>DLA-2032-1 cacti</define-tag>
<define-tag report_date>2019-12-11</define-tag>
<define-tag secrefs>CVE-2019-17358</define-tag>
<define-tag packages>cacti</define-tag>
<define-tag isvulnerable>yes</define-tag>
<define-tag fixed>yes</define-tag>
<define-tag fixed-section>no</define-tag>

#use wml::debian::security
