<define-tag pagetitle>DLA-2028-1 squid3</define-tag>
<define-tag report_date>2019-12-10</define-tag>
<define-tag secrefs>CVE-2019-12526 CVE-2019-18677 CVE-2019-18678 CVE-2019-18679</define-tag>
<define-tag packages>squid3</define-tag>
<define-tag isvulnerable>yes</define-tag>
<define-tag fixed>yes</define-tag>
<define-tag fixed-section>no</define-tag>

#use wml::debian::security

