<define-tag pagetitle>DLA-2019-1 exiv2</define-tag>
<define-tag report_date>2019-12-04</define-tag>
<define-tag secrefs>CVE-2019-17402</define-tag>
<define-tag packages>exiv2</define-tag>
<define-tag isvulnerable>yes</define-tag>
<define-tag fixed>yes</define-tag>
<define-tag fixed-section>no</define-tag>

#use wml::debian::security

